PR9/simulation/qsim/PR9.msim.vcd
$comment
	File created using the following command:
		vcd file PR9.msim.vcd -direction
$end
$date
	Mon Nov 14 16:25:53 2022
$end
$version
	ModelSim Version 10.5b
$end
$timescale
	1ps
$end

$scope module FSM_Moore_vlg_vec_tst $end
$var reg 1 ! clk $end
$var reg 2 " in [1:0] $end
$var reg 1 # reset $end
$var wire 1 $ out [1] $end
$var wire 1 % out [0] $end
$var wire 1 & w_state [1] $end
$var wire 1 ' w_state [0] $end

$scope module i1 $end
$var wire 1 ( gnd $end
$var wire 1 ) vcc $end
$var wire 1 * unknown $end
$var tri1 1 + devclrn $end
$var tri1 1 , devpor $end
$var tri1 1 - devoe $end
$var wire 1 . out[0]~output_o $end
$var wire 1 / out[1]~output_o $end
$var wire 1 0 w_state[0]~output_o $end
$var wire 1 1 w_state[1]~output_o $end
$var wire 1 2 clk~input_o $end
$var wire 1 3 in[0]~input_o $end
$var wire 1 4 in[1]~input_o $end
$var wire 1 5 Selector2~0_combout $end
$var wire 1 6 Selector2~1_combout $end
$var wire 1 7 reset~input_o $end
$var wire 1 8 state.S2~q $end
$var wire 1 9 Selector3~0_combout $end
$var wire 1 : state.S3~q $end
$var wire 1 ; w_state~3_combout $end
$var wire 1 < Selector0~0_combout $end
$var wire 1 = state.S0~q $end
$var wire 1 > out~1_combout $end
$var wire 1 ? Selector1~0_combout $end
$var wire 1 @ state.S1~q $end
$var wire 1 A w_state~2_combout $end
$upscope $end
$upscope $end
$enddefinitions $end
#0
$dumpvars
0!
b0 "
0#
0%
1$
0'
0&
0(
1)
x*
1+
1,
1-
0.
1/
00
01
02
03
04
05
06
07
08
19
0:
1;
1<
0=
1>
0?
0@
1A
$end
#10000
1#
17
#25000
1!
12
1=
1:
0A
0;
09
16
11
10
1'
1&
#30000
b1 "
13
#40000
b11 "
b10 "
03
14
#45000
0!
02
#50000
b11 "
13
1?
06
#65000
1!
12
0:
1@
1.
1;
15
1%
0>
0/
01
0&
0$
16
0?
#70000
b1 "
04
05
0<
06
#80000
b0 "
b10 "
03
14
#85000
0!
02
#90000
b0 "
04
1<
19
#100000
b1 "
b11 "
13
14
15
09
16
#105000
1!
12
18
0@
0.
1A
0;
0%
11
00
0'
1&
#110000
b1 "
04
05
1?
06
#120000
b0 "
b10 "
03
14
#125000
0!
02
#130000
b11 "
13
15
0?
16
#140000
b1 "
b0 "
03
04
05
0<
06
#145000
1!
12
0=
08
1;
1>
1<
19
1/
01
0&
1$
#150000
b1 "
13
0<
09
#160000
b11 "
b10 "
03
14
#165000
0!
02
#170000
b11 "
13
1?
1<
#180000
0#
b1 "
b0 "
07
03
04
0?
19
#185000
1!
12
#205000
0!
02
