PR5/simulation/qsim/PR5.msim.vcd
$comment
	File created using the following command:
		vcd file PR5.msim.vcd -direction
$end
$date
	Sat Oct 01 09:52:40 2022
$end
$version
	ModelSim Version 10.5b
$end
$timescale
	1ps
$end

$scope module PR5_vlg_vec_tst $end
$var reg 8 ! in [7:0] $end
$var wire 1 " out [5] $end
$var wire 1 # out [4] $end
$var wire 1 $ out [3] $end
$var wire 1 % out [2] $end
$var wire 1 & out [1] $end
$var wire 1 ' out [0] $end

$scope module i1 $end
$var wire 1 ( gnd $end
$var wire 1 ) vcc $end
$var wire 1 * unknown $end
$var tri1 1 + devclrn $end
$var tri1 1 , devpor $end
$var tri1 1 - devoe $end
$var wire 1 . out[0]~output_o $end
$var wire 1 / out[1]~output_o $end
$var wire 1 0 out[2]~output_o $end
$var wire 1 1 out[3]~output_o $end
$var wire 1 2 out[4]~output_o $end
$var wire 1 3 out[5]~output_o $end
$var wire 1 4 in[0]~input_o $end
$var wire 1 5 in[1]~input_o $end
$var wire 1 6 in[2]~input_o $end
$var wire 1 7 in[3]~input_o $end
$var wire 1 8 WideOr3~0_combout $end
$var wire 1 9 in[4]~input_o $end
$var wire 1 : in[5]~input_o $end
$var wire 1 ; in[6]~input_o $end
$var wire 1 < in[7]~input_o $end
$var wire 1 = out~0_combout $end
$var wire 1 > WideOr3~1_combout $end
$var wire 1 ? WideOr2~0_combout $end
$var wire 1 @ WideOr1~0_combout $end
$var wire 1 A out~1_combout $end
$var wire 1 B WideOr0~0_combout $end
$var wire 1 C WideOr0~1_combout $end
$upscope $end
$upscope $end
$enddefinitions $end
#0
$dumpvars
b0 !
0'
0&
0%
0$
0#
0"
0(
1)
x*
1+
1,
1-
0.
0/
00
01
02
03
04
05
06
07
08
09
0:
0;
0<
0=
0>
0?
0@
0A
0B
0C
$end
#80000
b100000 !
b101000 !
b101100 !
b101110 !
15
16
17
1:
#100000
b101111 !
14
#120000
b111111 !
b110111 !
b110011 !
b110001 !
b110000 !
04
05
06
07
19
1B
1=
1C
12
13
1"
1#
#140000
b110001 !
14
18
1>
1.
1'
#160000
b110011 !
b110010 !
04
15
08
1?
1/
1&
0>
0.
0'
#180000
b110011 !
14
18
1>
1.
1'
#200000
b110111 !
b110101 !
b110100 !
04
05
16
08
0?
1@
10
0/
0&
1%
0>
0.
0'
#220000
b110101 !
14
18
1>
1.
1'
#240000
b110111 !
b110110 !
04
15
08
1?
1/
1&
0>
0.
0'
#260000
b110111 !
14
18
1>
1.
1'
#280000
b111111 !
b111011 !
b111001 !
b111000 !
04
05
06
17
08
1A
0?
0@
00
0/
11
1$
0&
0%
0>
0.
0'
#300000
b111001 !
14
18
1>
1.
1'
#320000
b111011 !
b111010 !
04
15
08
0B
0A
01
0$
0>
0C
02
03
0.
0'
0"
0#
#340000
b111011 !
14
#360000
b111111 !
b111101 !
b111100 !
04
05
16
#380000
b111101 !
14
#400000
b111111 !
b111110 !
04
15
#420000
b111111 !
14
#440000
b1111111 !
b1011111 !
b1001111 !
b1000111 !
b1000011 !
b1000001 !
b1000000 !
04
05
06
07
09
0:
1;
0=
#460000
b1000001 !
14
18
#480000
b1000011 !
b1000010 !
04
15
08
#500000
b1000011 !
14
18
#520000
b1000111 !
b1000101 !
b1000100 !
04
05
16
08
#540000
b1000101 !
14
18
#560000
b1000111 !
b1000110 !
04
15
08
#580000
b1000111 !
14
18
#600000
b1001111 !
b1001011 !
b1001001 !
b1001000 !
04
05
06
17
08
#620000
b1001001 !
14
18
#640000
b1001 !
b1 !
b0 !
04
07
0;
08
