PR7/simulation/qsim/PR7.msim.vcd
$comment
	File created using the following command:
		vcd file PR7.msim.vcd -direction
$end
$date
	Mon Oct 17 01:16:05 2022
$end
$version
	ModelSim Version 10.5b
$end
$timescale
	1ps
$end

$scope module PR7_vlg_vec_tst $end
$var reg 1 ! clk $end
$var reg 4 " imp_width [3:0] $end
$var reg 1 # reset $end
$var wire 1 $ pwm_out $end

$scope module i1 $end
$var wire 1 % gnd $end
$var wire 1 & vcc $end
$var wire 1 ' unknown $end
$var tri1 1 ( devclrn $end
$var tri1 1 ) devpor $end
$var tri1 1 * devoe $end
$var wire 1 + pwm_out~output_o $end
$var wire 1 , imp_width[3]~input_o $end
$var wire 1 - clk~input_o $end
$var wire 1 . counter|count[0]~3_combout $end
$var wire 1 / reset~input_o $end
$var wire 1 0 counter|count[1]~2_combout $end
$var wire 1 1 counter|count[2]~1_combout $end
$var wire 1 2 counter|count[3]~0_combout $end
$var wire 1 3 imp_width[2]~input_o $end
$var wire 1 4 imp_width[1]~input_o $end
$var wire 1 5 imp_width[0]~input_o $end
$var wire 1 6 LessThan0~0_combout $end
$var wire 1 7 LessThan0~1_combout $end
$var wire 1 8 LessThan0~2_combout $end
$var wire 1 9 counter|count [3] $end
$var wire 1 : counter|count [2] $end
$var wire 1 ; counter|count [1] $end
$var wire 1 < counter|count [0] $end
$upscope $end
$upscope $end
$enddefinitions $end
#0
$dumpvars
0!
b1101 "
0#
1$
0%
1&
x'
1(
1)
1*
1+
1,
0-
1.
0/
00
01
02
13
04
15
16
17
18
0<
0;
0:
09
$end
#1000
1!
1-
1<
06
10
0.
#2000
0!
0-
#3000
1!
1-
1;
0<
1.
#4000
0!
0-
#5000
1!
1-
1<
11
00
0.
#6000
0!
0-
#7000
1!
1-
1:
0;
0<
07
16
1.
17
#8000
0!
0-
#9000
1!
1-
1<
06
10
0.
07
#10000
0!
0-
#11000
1!
1-
1;
0<
1.
#12000
0!
0-
#13000
1!
1-
1<
12
01
00
0.
#14000
0!
0-
#15000
1!
1-
19
0:
0;
0<
17
16
08
1.
0+
0$
18
1+
1$
#16000
0!
0-
#17000
1!
1-
1<
06
10
0.
#18000
0!
0-
#19000
1!
1-
1;
0<
1.
#20000
0!
0-
#21000
1!
1-
1<
11
00
0.
#22000
0!
0-
#23000
1!
1-
1:
0;
0<
07
16
1.
17
08
0+
0$
18
1+
1$
#24000
0!
0-
#25000
1!
1-
1<
06
10
0.
07
08
0+
0$
#26000
0!
0-
#27000
1!
1-
1;
0<
1.
#28000
0!
0-
#29000
1!
1-
1<
02
01
00
0.
#30000
0!
0-
#31000
1!
1-
09
0:
0;
0<
17
16
18
1.
1+
1$
#32000
0!
0-
#33000
1!
1-
1<
06
10
0.
#34000
0!
0-
#35000
1!
1-
1;
0<
1.
#36000
0!
0-
#37000
1!
1-
1<
11
00
0.
#38000
0!
0-
#39000
1!
1-
1:
0;
0<
07
16
1.
17
#40000
0!
0-
#41000
1!
1-
1<
06
10
0.
07
#42000
0!
0-
#43000
1!
1-
1;
0<
1.
#44000
0!
0-
#45000
1!
1-
1<
12
01
00
0.
#46000
0!
0-
#47000
1!
1-
19
0:
0;
0<
17
16
08
1.
0+
0$
18
1+
1$
#48000
0!
0-
#49000
1!
1-
1<
06
10
0.
#50000
0!
0-
#51000
1!
1-
1;
0<
1.
#52000
0!
0-
#53000
1!
1-
1<
11
00
0.
#54000
0!
0-
#55000
1!
1-
1:
0;
0<
07
16
1.
17
08
0+
0$
18
1+
1$
#56000
0!
0-
#57000
1!
1-
1<
06
10
0.
07
08
0+
0$
#58000
0!
0-
#59000
1!
1-
1;
0<
1.
#60000
0!
0-
#61000
1!
1-
1<
02
01
00
0.
#62000
0!
0-
#63000
1!
1-
09
0:
0;
0<
17
16
18
1.
1+
1$
#64000
0!
0-
#65000
1!
1-
1<
06
10
0.
#66000
0!
0-
#67000
1!
1-
1;
0<
1.
#68000
0!
0-
#69000
1!
1-
1<
11
00
0.
#70000
0!
0-
#71000
1!
1-
1:
0;
0<
07
16
1.
17
#72000
0!
0-
#73000
1!
1-
1<
06
10
0.
07
#74000
0!
0-
#75000
1!
1-
1;
0<
1.
#76000
0!
0-
#77000
1!
1-
1<
12
01
00
0.
#78000
0!
0-
#79000
1!
1-
19
0:
0;
0<
17
16
08
1.
0+
0$
18
1+
1$
#80000
0!
0-
#81000
1!
1-
1<
06
10
0.
#82000
0!
0-
#83000
1!
1-
1;
0<
1.
#84000
0!
0-
#85000
1!
1-
1<
11
00
0.
#86000
0!
0-
#87000
1!
1-
1:
0;
0<
07
16
1.
17
08
0+
0$
18
1+
1$
#88000
0!
0-
#89000
1!
1-
1<
06
10
0.
07
08
0+
0$
#90000
0!
0-
#91000
1!
1-
1;
0<
1.
#92000
0!
0-
#93000
1!
1-
1<
02
01
00
0.
#94000
0!
0-
#95000
1!
1-
09
0:
0;
0<
17
16
18
1.
1+
1$
#96000
0!
0-
#97000
1!
1-
1<
06
10
0.
#98000
0!
0-
#99000
1!
1-
1;
0<
1.
#100000
0!
0-
#101000
1!
1-
1<
11
00
0.
#102000
0!
0-
#103000
1!
1-
1:
0;
0<
07
16
1.
17
#104000
0!
0-
#105000
1!
1-
1<
06
10
0.
07
#106000
0!
0-
#107000
1!
1-
1;
0<
1.
#108000
0!
0-
#109000
1!
1-
1<
12
01
00
0.
#110000
0!
0-
#111000
1!
1-
19
0:
0;
0<
17
16
08
1.
0+
0$
18
1+
1$
#112000
0!
0-
#113000
1!
1-
1<
06
10
0.
#114000
0!
0-
#115000
1!
1-
1;
0<
1.
#116000
0!
0-
#117000
1!
1-
1<
11
00
0.
#118000
0!
0-
#119000
1!
1-
1:
0;
0<
07
16
1.
17
08
0+
0$
18
1+
1$
#120000
0!
0-
#121000
1!
1-
1<
06
10
0.
07
08
0+
0$
#122000
0!
0-
#123000
1!
1-
1;
0<
1.
#124000
0!
0-
#125000
1!
1-
1<
02
01
00
0.
#126000
0!
0-
#127000
1!
1-
09
0:
0;
0<
17
16
18
1.
1+
1$
#128000
0!
0-
#129000
1!
1-
1<
06
10
0.
#130000
0!
0-
#131000
1!
1-
1;
0<
1.
#132000
0!
0-
#133000
1!
1-
1<
11
00
0.
#134000
0!
0-
#135000
1!
1-
1:
0;
0<
07
16
1.
17
#136000
0!
0-
#137000
1!
1-
1<
06
10
0.
07
#138000
0!
0-
#139000
1!
1-
1;
0<
1.
#140000
0!
0-
#141000
1!
1-
1<
12
01
00
0.
#142000
0!
0-
#143000
1!
1-
19
0:
0;
0<
17
16
08
1.
0+
0$
18
1+
1$
#144000
0!
0-
#145000
1!
1-
1<
06
10
0.
#146000
0!
0-
#147000
1!
1-
1;
0<
1.
#148000
0!
0-
#149000
1!
1-
1<
11
00
0.
#150000
0!
0-
#151000
1!
1-
1:
0;
0<
07
16
1.
17
08
0+
0$
18
1+
1$
#152000
0!
0-
#153000
1!
1-
1<
06
10
0.
07
08
0+
0$
#154000
0!
0-
#155000
1!
1-
1;
0<
1.
#156000
0!
0-
#157000
1!
1-
1<
02
01
00
0.
#158000
0!
0-
#159000
1!
1-
09
0:
0;
0<
17
16
18
1.
1+
1$
#160000
0!
0-
#161000
1!
1-
1<
06
10
0.
#162000
0!
0-
#163000
1!
1-
1;
0<
1.
#164000
0!
0-
#165000
1!
1-
1<
11
00
0.
#166000
0!
0-
#167000
1!
1-
1:
0;
0<
07
16
1.
17
#168000
0!
0-
#169000
1!
1-
1<
06
10
0.
07
#170000
0!
0-
#171000
1!
1-
1;
0<
1.
#172000
0!
0-
#173000
1!
1-
1<
12
01
00
0.
#174000
0!
0-
#175000
1!
1-
19
0:
0;
0<
17
16
08
1.
0+
0$
18
1+
1$
#176000
0!
0-
#177000
1!
1-
1<
06
10
0.
#178000
0!
0-
#179000
1!
1-
1;
0<
1.
#180000
0!
0-
#181000
1!
1-
1<
11
00
0.
#182000
0!
0-
#183000
1!
1-
1:
0;
0<
07
16
1.
17
08
0+
0$
18
1+
1$
#184000
0!
0-
#185000
1!
1-
1<
06
10
0.
07
08
0+
0$
#186000
0!
0-
#187000
1!
1-
1;
0<
1.
#188000
0!
0-
#189000
1!
1-
1<
02
01
00
0.
#190000
0!
0-
#191000
1!
1-
09
0:
0;
0<
17
16
18
1.
1+
1$
#192000
0!
0-
#193000
1!
1-
1<
06
10
0.
#194000
0!
0-
#195000
1!
1-
1;
0<
1.
#196000
0!
0-
#197000
1!
1-
1<
11
00
0.
#198000
0!
0-
#199000
1!
1-
1:
0;
0<
07
16
1.
17
#200000
0!
0-
#201000
1!
1-
1<
06
10
0.
07
#202000
0!
0-
#203000
1!
1-
1;
0<
1.
#204000
0!
0-
#205000
1!
1-
1<
12
01
00
0.
#206000
0!
0-
#207000
1!
1-
19
0:
0;
0<
17
16
08
1.
0+
0$
18
1+
1$
#208000
0!
0-
#209000
1!
1-
1<
06
10
0.
#210000
0!
0-
#211000
1!
1-
1;
0<
1.
#212000
0!
0-
#213000
1!
1-
1<
11
00
0.
#214000
0!
0-
#215000
1!
1-
1:
0;
0<
07
16
1.
17
08
0+
0$
18
1+
1$
#216000
0!
0-
#217000
1!
1-
1<
06
10
0.
07
08
0+
0$
#218000
0!
0-
#219000
1!
1-
1;
0<
1.
#220000
0!
0-
#221000
1!
1-
1<
02
01
00
0.
#222000
0!
0-
#223000
1!
1-
09
0:
0;
0<
17
16
18
1.
1+
1$
#224000
0!
0-
#225000
1!
1-
1<
06
10
0.
#226000
0!
0-
#227000
1!
1-
1;
0<
1.
#228000
0!
0-
#229000
1!
1-
1<
11
00
0.
#230000
0!
0-
#231000
1!
1-
1:
0;
0<
07
16
1.
17
#232000
0!
0-
#233000
1!
1-
1<
06
10
0.
07
#234000
0!
0-
#235000
1!
1-
1;
0<
1.
#236000
0!
0-
#237000
1!
1-
1<
12
01
00
0.
#238000
0!
0-
#239000
1!
1-
19
0:
0;
0<
17
16
08
1.
0+
0$
18
1+
1$
#240000
0!
0-
#241000
1!
1-
1<
06
10
0.
#242000
0!
0-
#243000
1!
1-
1;
0<
1.
#244000
0!
0-
#245000
1!
1-
1<
11
00
0.
#246000
0!
0-
#247000
1!
1-
1:
0;
0<
07
16
1.
17
08
0+
0$
18
1+
1$
#248000
0!
0-
#249000
1!
1-
1<
06
10
0.
07
08
0+
0$
#250000
0!
0-
#251000
1!
1-
1;
0<
1.
#252000
0!
0-
#253000
1!
1-
1<
02
01
00
0.
#254000
0!
0-
#255000
1!
1-
09
0:
0;
0<
17
16
18
1.
1+
1$
#256000
0!
0-
#257000
1!
1-
1<
06
10
0.
#258000
0!
0-
#259000
1!
1-
1;
0<
1.
#260000
0!
0-
#261000
1!
1-
1<
11
00
0.
#262000
0!
0-
#263000
1!
1-
1:
0;
0<
07
16
1.
17
#264000
0!
0-
#265000
1!
1-
1<
06
10
0.
07
#266000
0!
0-
#267000
1!
1-
1;
0<
1.
#268000
0!
0-
#269000
1!
1-
1<
12
01
00
0.
#270000
0!
0-
#271000
1!
1-
19
0:
0;
0<
17
16
08
1.
0+
0$
18
1+
1$
#272000
0!
0-
#273000
1!
1-
1<
06
10
0.
#274000
0!
0-
#275000
1!
1-
1;
0<
1.
#276000
0!
0-
#277000
1!
1-
1<
11
00
0.
#278000
0!
0-
#279000
1!
1-
1:
0;
0<
07
16
1.
17
08
0+
0$
18
1+
1$
#280000
0!
0-
#281000
1!
1-
1<
06
10
0.
07
08
0+
0$
#282000
0!
0-
#283000
1!
1-
1;
0<
1.
#284000
0!
0-
#285000
1!
1-
1<
02
01
00
0.
#286000
0!
0-
#287000
1!
1-
09
0:
0;
0<
17
16
18
1.
1+
1$
#288000
0!
0-
#289000
1!
1-
1<
06
10
0.
#290000
0!
0-
#291000
1!
1-
1;
0<
1.
#292000
0!
0-
#293000
1!
1-
1<
11
00
0.
#294000
0!
0-
#295000
1!
1-
1:
0;
0<
07
16
1.
17
#296000
0!
0-
#297000
1!
1-
1<
06
10
0.
07
#298000
0!
0-
#299000
1!
1-
1;
0<
1.
#300000
0!
0-
#301000
1!
1-
1<
12
01
00
0.
#302000
0!
0-
#303000
1!
1-
19
0:
0;
0<
17
16
08
1.
0+
0$
18
1+
1$
#304000
0!
0-
#305000
1!
1-
1<
06
10
0.
#306000
0!
0-
#307000
1!
1-
1;
0<
1.
#308000
0!
0-
#309000
1!
1-
1<
11
00
0.
#310000
0!
0-
#311000
1!
1-
1:
0;
0<
07
16
1.
17
08
0+
0$
18
1+
1$
#312000
0!
0-
#313000
1!
1-
1<
06
10
0.
07
08
0+
0$
#314000
0!
0-
#315000
1!
1-
1;
0<
1.
#316000
0!
0-
#317000
1!
1-
1<
02
01
00
0.
#318000
0!
0-
#319000
1!
1-
09
0:
0;
0<
17
16
18
1.
1+
1$
#320000
0!
0-
#321000
1!
1-
1<
06
10
0.
#322000
0!
0-
#323000
1!
1-
1;
0<
1.
#324000
0!
0-
#325000
1!
1-
1<
11
00
0.
#326000
0!
0-
#327000
1!
1-
1:
0;
0<
07
16
1.
17
#328000
0!
0-
#329000
1!
1-
1<
06
10
0.
07
#330000
0!
0-
#331000
1!
1-
1;
0<
1.
#332000
0!
0-
#333000
1!
1-
1<
12
01
00
0.
#334000
0!
0-
#335000
1!
1-
19
0:
0;
0<
17
16
08
1.
0+
0$
18
1+
1$
#336000
0!
0-
#337000
1!
1-
1<
06
10
0.
#338000
0!
0-
#339000
1!
1-
1;
0<
1.
#340000
0!
0-
#341000
1!
1-
1<
11
00
0.
#342000
0!
0-
#343000
1!
1-
1:
0;
0<
07
16
1.
17
08
0+
0$
18
1+
1$
#344000
0!
0-
#345000
1!
1-
1<
06
10
0.
07
08
0+
0$
#346000
0!
0-
#347000
1!
1-
1;
0<
1.
#348000
0!
0-
#349000
1!
1-
1<
02
01
00
0.
#350000
0!
0-
#351000
1!
1-
09
0:
0;
0<
17
16
18
1.
1+
1$
#352000
0!
0-
#353000
1!
1-
1<
06
10
0.
#354000
0!
0-
#355000
1!
1-
1;
0<
1.
#356000
0!
0-
#357000
1!
1-
1<
11
00
0.
#358000
0!
0-
#359000
1!
1-
1:
0;
0<
07
16
1.
17
#360000
0!
0-
#361000
1!
1-
1<
06
10
0.
07
#362000
0!
0-
#363000
1!
1-
1;
0<
1.
#364000
0!
0-
#365000
1!
1-
1<
12
01
00
0.
#366000
0!
0-
#367000
1!
1-
19
0:
0;
0<
17
16
08
1.
0+
0$
18
1+
1$
#368000
0!
0-
#369000
1!
1-
1<
06
10
0.
#370000
0!
0-
#371000
1!
1-
1;
0<
1.
#372000
0!
0-
#373000
1!
1-
1<
11
00
0.
#374000
0!
0-
#375000
1!
1-
1:
0;
0<
07
16
1.
17
08
0+
0$
18
1+
1$
#376000
0!
0-
#377000
1!
1-
1<
06
10
0.
07
08
0+
0$
#378000
0!
0-
#379000
1!
1-
1;
0<
1.
#380000
0!
0-
#381000
1!
1-
1<
02
01
00
0.
#382000
0!
0-
#383000
1!
1-
09
0:
0;
0<
17
16
18
1.
1+
1$
#384000
0!
0-
#385000
1!
1-
1<
06
10
0.
#386000
0!
0-
#387000
1!
1-
1;
0<
1.
#388000
0!
0-
#389000
1!
1-
1<
11
00
0.
#390000
0!
0-
#391000
1!
1-
1:
0;
0<
07
16
1.
17
#392000
0!
0-
#393000
1!
1-
1<
06
10
0.
07
#394000
0!
0-
#395000
1!
1-
1;
0<
1.
#396000
0!
0-
#397000
1!
1-
1<
12
01
00
0.
#398000
0!
0-
#399000
1!
1-
19
0:
0;
0<
17
16
08
1.
0+
0$
18
1+
1$
#400000
b101 "
0!
0,
0-
08
0+
0$
#401000
1!
1-
1<
06
10
0.
#402000
0!
0-
#403000
1!
1-
1;
0<
1.
#404000
0!
0-
#405000
1!
1-
1<
11
00
0.
#406000
0!
0-
#407000
1!
1-
1:
0;
0<
07
16
1.
17
#408000
0!
0-
#409000
1!
1-
1<
06
10
0.
07
#410000
0!
0-
#411000
1!
1-
1;
0<
1.
#412000
0!
0-
#413000
1!
1-
1<
02
01
00
0.
#414000
0!
0-
#415000
1!
1-
09
0:
0;
0<
17
16
1.
18
1+
1$
#416000
0!
0-
#417000
1!
1-
1<
06
10
0.
#418000
0!
0-
#419000
1!
1-
1;
0<
1.
#420000
0!
0-
#421000
1!
1-
1<
11
00
0.
#422000
0!
0-
#423000
1!
1-
1:
0;
0<
07
16
1.
17
08
0+
0$
18
1+
1$
#424000
0!
0-
#425000
1!
1-
1<
06
10
0.
07
08
0+
0$
#426000
0!
0-
#427000
1!
1-
1;
0<
1.
#428000
0!
0-
#429000
1!
1-
1<
12
01
00
0.
#430000
0!
0-
#431000
1!
1-
19
0:
0;
0<
17
16
1.
#432000
0!
0-
#433000
1!
1-
1<
06
10
0.
#434000
0!
0-
#435000
1!
1-
1;
0<
1.
#436000
0!
0-
#437000
1!
1-
1<
11
00
0.
#438000
0!
0-
#439000
1!
1-
1:
0;
0<
07
16
1.
17
#440000
0!
0-
#441000
1!
1-
1<
06
10
0.
07
#442000
0!
0-
#443000
1!
1-
1;
0<
1.
#444000
0!
0-
#445000
1!
1-
1<
02
01
00
0.
#446000
0!
0-
#447000
1!
1-
09
0:
0;
0<
17
16
1.
18
1+
1$
#448000
0!
0-
#449000
1!
1-
1<
06
10
0.
#450000
0!
0-
#451000
1!
1-
1;
0<
1.
#452000
0!
0-
#453000
1!
1-
1<
11
00
0.
#454000
0!
0-
#455000
1!
1-
1:
0;
0<
07
16
1.
17
08
0+
0$
18
1+
1$
#456000
0!
0-
#457000
1!
1-
1<
06
10
0.
07
08
0+
0$
#458000
0!
0-
#459000
1!
1-
1;
0<
1.
#460000
0!
0-
#461000
1!
1-
1<
12
01
00
0.
#462000
0!
0-
#463000
1!
1-
19
0:
0;
0<
17
16
1.
#464000
0!
0-
#465000
1!
1-
1<
06
10
0.
#466000
0!
0-
#467000
1!
1-
1;
0<
1.
#468000
0!
0-
#469000
1!
1-
1<
11
00
0.
#470000
0!
0-
#471000
1!
1-
1:
0;
0<
07
16
1.
17
#472000
0!
0-
#473000
1!
1-
1<
06
10
0.
07
#474000
0!
0-
#475000
1!
1-
1;
0<
1.
#476000
0!
0-
#477000
1!
1-
1<
02
01
00
0.
#478000
0!
0-
#479000
1!
1-
09
0:
0;
0<
17
16
1.
18
1+
1$
#480000
0!
0-
#481000
1!
1-
1<
06
10
0.
#482000
0!
0-
#483000
1!
1-
1;
0<
1.
#484000
0!
0-
#485000
1!
1-
1<
11
00
0.
#486000
0!
0-
#487000
1!
1-
1:
0;
0<
07
16
1.
17
08
0+
0$
18
1+
1$
#488000
0!
0-
#489000
1!
1-
1<
06
10
0.
07
08
0+
0$
#490000
0!
0-
#491000
1!
1-
1;
0<
1.
#492000
0!
0-
#493000
1!
1-
1<
12
01
00
0.
#494000
0!
0-
#495000
1!
1-
19
0:
0;
0<
17
16
1.
#496000
0!
0-
#497000
1!
1-
1<
06
10
0.
#498000
0!
0-
#499000
1!
1-
1;
0<
1.
#500000
0!
0-
#501000
1!
1-
1<
11
00
0.
#502000
0!
0-
#503000
1!
1-
1:
0;
0<
07
16
1.
17
#504000
0!
0-
#505000
1!
1-
1<
06
10
0.
07
#506000
0!
0-
#507000
1!
1-
1;
0<
1.
#508000
0!
0-
#509000
1!
1-
1<
02
01
00
0.
#510000
0!
0-
#511000
1!
1-
09
0:
0;
0<
17
16
1.
18
1+
1$
#512000
0!
0-
#513000
1!
1-
1<
06
10
0.
#514000
0!
0-
#515000
1!
1-
1;
0<
1.
#516000
0!
0-
#517000
1!
1-
1<
11
00
0.
#518000
0!
0-
#519000
1!
1-
1:
0;
0<
07
16
1.
17
08
0+
0$
18
1+
1$
#520000
0!
0-
#521000
1!
1-
1<
06
10
0.
07
08
0+
0$
#522000
0!
0-
#523000
1!
1-
1;
0<
1.
#524000
0!
0-
#525000
1!
1-
1<
12
01
00
0.
#526000
0!
0-
#527000
1!
1-
19
0:
0;
0<
17
16
1.
#528000
0!
0-
#529000
1!
1-
1<
06
10
0.
#530000
0!
0-
#531000
1!
1-
1;
0<
1.
#532000
0!
0-
#533000
1!
1-
1<
11
00
0.
#534000
0!
0-
#535000
1!
1-
1:
0;
0<
07
16
1.
17
#536000
0!
0-
#537000
1!
1-
1<
06
10
0.
07
#538000
0!
0-
#539000
1!
1-
1;
0<
1.
#540000
1#
0!
1/
0-
0;
0:
09
16
17
02
01
00
18
1+
1$
#541000
1!
1-
#542000
0!
0-
#543000
1!
1-
#544000
0!
0-
#545000
1!
1-
#546000
0!
0-
#547000
1!
1-
#548000
0!
0-
#549000
1!
1-
#550000
0!
0-
#551000
1!
1-
#552000
0!
0-
#553000
1!
1-
#554000
0!
0-
#555000
1!
1-
#556000
0!
0-
#557000
1!
1-
#558000
0!
0-
#559000
1!
1-
#560000
0!
0-
#561000
1!
1-
#562000
0!
0-
#563000
1!
1-
#564000
0!
0-
#565000
1!
1-
#566000
0!
0-
#567000
1!
1-
#568000
0!
0-
#569000
1!
1-
#570000
0!
0-
#571000
1!
1-
#572000
0!
0-
#573000
1!
1-
#574000
0!
0-
#575000
1!
1-
#576000
0!
0-
#577000
1!
1-
#578000
0!
0-
#579000
1!
1-
#580000
0!
0-
#581000
1!
1-
#582000
0!
0-
#583000
1!
1-
#584000
0!
0-
#585000
1!
1-
#586000
0!
0-
#587000
1!
1-
#588000
0!
0-
#589000
1!
1-
#590000
0!
0-
#591000
1!
1-
#592000
0!
0-
#593000
1!
1-
#594000
0!
0-
#595000
1!
1-
#596000
0!
0-
#597000
1!
1-
#598000
0!
0-
#599000
1!
1-
#600000
0!
0-
#601000
1!
1-
#602000
0!
0-
#603000
1!
1-
#604000
0!
0-
#605000
1!
1-
#606000
0!
0-
#607000
1!
1-
#608000
0!
0-
#609000
1!
1-
#610000
0!
0-
#611000
1!
1-
#612000
0!
0-
#613000
1!
1-
#614000
0!
0-
#615000
1!
1-
#616000
0!
0-
#617000
1!
1-
#618000
0!
0-
#619000
1!
1-
#620000
0!
0-
#621000
1!
1-
#622000
0!
0-
#623000
1!
1-
#624000
0!
0-
#625000
1!
1-
#626000
0!
0-
#627000
1!
1-
#628000
0!
0-
#629000
1!
1-
#630000
0!
0-
#631000
1!
1-
#632000
0!
0-
#633000
1!
1-
#634000
0!
0-
#635000
1!
1-
#636000
0!
0-
#637000
1!
1-
#638000
0!
0-
#639000
1!
1-
#640000
0!
0-
#641000
1!
1-
#642000
0!
0-
#643000
1!
1-
#644000
0!
0-
#645000
1!
1-
#646000
0!
0-
#647000
1!
1-
#648000
0!
0-
#649000
1!
1-
#650000
0#
0!
0/
0-
#651000
1!
1-
1<
06
10
0.
#652000
0!
0-
#653000
1!
1-
1;
0<
1.
#654000
0!
0-
#655000
1!
1-
1<
11
00
0.
#656000
0!
0-
#657000
1!
1-
1:
0;
0<
07
16
1.
17
08
0+
0$
18
1+
1$
#658000
0!
0-
#659000
1!
1-
1<
06
10
0.
07
08
0+
0$
#660000
0!
0-
#661000
1!
1-
1;
0<
1.
#662000
0!
0-
#663000
1!
1-
1<
12
01
00
0.
#664000
0!
0-
#665000
1!
1-
19
0:
0;
0<
17
16
1.
#666000
0!
0-
#667000
1!
1-
1<
06
10
0.
#668000
0!
0-
#669000
1!
1-
1;
0<
1.
#670000
0!
0-
#671000
1!
1-
1<
11
00
0.
#672000
0!
0-
#673000
1!
1-
1:
0;
0<
07
16
1.
17
#674000
0!
0-
#675000
1!
1-
1<
06
10
0.
07
#676000
0!
0-
#677000
1!
1-
1;
0<
1.
#678000
0!
0-
#679000
1!
1-
1<
02
01
00
0.
#680000
0!
0-
#681000
1!
1-
09
0:
0;
0<
17
16
1.
18
1+
1$
#682000
0!
0-
#683000
1!
1-
1<
06
10
0.
#684000
0!
0-
#685000
1!
1-
1;
0<
1.
#686000
0!
0-
#687000
1!
1-
1<
11
00
0.
#688000
0!
0-
#689000
1!
1-
1:
0;
0<
07
16
1.
17
08
0+
0$
18
1+
1$
#690000
0!
0-
#691000
1!
1-
1<
06
10
0.
07
08
0+
0$
#692000
0!
0-
#693000
1!
1-
1;
0<
1.
#694000
0!
0-
#695000
1!
1-
1<
12
01
00
0.
#696000
0!
0-
#697000
1!
1-
19
0:
0;
0<
17
16
1.
#698000
0!
0-
#699000
1!
1-
1<
06
10
0.
#700000
0!
0-
#701000
1!
1-
1;
0<
1.
#702000
0!
0-
#703000
1!
1-
1<
11
00
0.
#704000
0!
0-
#705000
1!
1-
1:
0;
0<
07
16
1.
17
#706000
0!
0-
#707000
1!
1-
1<
06
10
0.
07
#708000
0!
0-
#709000
1!
1-
1;
0<
1.
#710000
0!
0-
#711000
1!
1-
1<
02
01
00
0.
#712000
0!
0-
#713000
1!
1-
09
0:
0;
0<
17
16
1.
18
1+
1$
#714000
0!
0-
#715000
1!
1-
1<
06
10
0.
#716000
0!
0-
#717000
1!
1-
1;
0<
1.
#718000
0!
0-
#719000
1!
1-
1<
11
00
0.
#720000
b1 "
0!
03
0-
07
08
0+
0$
#721000
1!
1-
1:
0;
0<
16
1.
#722000
0!
0-
#723000
1!
1-
1<
06
10
0.
#724000
0!
0-
#725000
1!
1-
1;
0<
1.
#726000
0!
0-
#727000
1!
1-
1<
12
01
00
0.
#728000
0!
0-
#729000
1!
1-
19
0:
0;
0<
16
1.
17
#730000
0!
0-
#731000
1!
1-
1<
06
10
0.
07
#732000
0!
0-
#733000
1!
1-
1;
0<
1.
#734000
0!
0-
#735000
1!
1-
1<
11
00
0.
#736000
0!
0-
#737000
1!
1-
1:
0;
0<
16
1.
#738000
0!
0-
#739000
1!
1-
1<
06
10
0.
#740000
0!
0-
#741000
1!
1-
1;
0<
1.
#742000
0!
0-
#743000
1!
1-
1<
02
01
00
0.
#744000
0!
0-
#745000
1!
1-
09
0:
0;
0<
16
1.
17
18
1+
1$
#746000
0!
0-
#747000
1!
1-
1<
06
10
0.
07
08
0+
0$
#748000
0!
0-
#749000
1!
1-
1;
0<
1.
#750000
0!
0-
#751000
1!
1-
1<
11
00
0.
#752000
0!
0-
#753000
1!
1-
1:
0;
0<
16
1.
#754000
0!
0-
#755000
1!
1-
1<
06
10
0.
#756000
0!
0-
#757000
1!
1-
1;
0<
1.
#758000
0!
0-
#759000
1!
1-
1<
12
01
00
0.
#760000
0!
0-
#761000
1!
1-
19
0:
0;
0<
16
1.
17
#762000
0!
0-
#763000
1!
1-
1<
06
10
0.
07
#764000
0!
0-
#765000
1!
1-
1;
0<
1.
#766000
0!
0-
#767000
1!
1-
1<
11
00
0.
#768000
0!
0-
#769000
1!
1-
1:
0;
0<
16
1.
#770000
0!
0-
#771000
1!
1-
1<
06
10
0.
#772000
0!
0-
#773000
1!
1-
1;
0<
1.
#774000
0!
0-
#775000
1!
1-
1<
02
01
00
0.
#776000
0!
0-
#777000
1!
1-
09
0:
0;
0<
16
1.
17
18
1+
1$
#778000
0!
0-
#779000
1!
1-
1<
06
10
0.
07
08
0+
0$
#780000
0!
0-
#781000
1!
1-
1;
0<
1.
#782000
0!
0-
#783000
1!
1-
1<
11
00
0.
#784000
0!
0-
#785000
1!
1-
1:
0;
0<
16
1.
#786000
0!
0-
#787000
1!
1-
1<
06
10
0.
#788000
0!
0-
#789000
1!
1-
1;
0<
1.
#790000
0!
0-
#791000
1!
1-
1<
12
01
00
0.
#792000
0!
0-
#793000
1!
1-
19
0:
0;
0<
16
1.
17
#794000
0!
0-
#795000
1!
1-
1<
06
10
0.
07
#796000
0!
0-
#797000
1!
1-
1;
0<
1.
#798000
0!
0-
#799000
1!
1-
1<
11
00
0.
#800000
0!
0-
#801000
1!
1-
1:
0;
0<
16
1.
#802000
0!
0-
#803000
1!
1-
1<
06
10
0.
#804000
0!
0-
#805000
1!
1-
1;
0<
1.
#806000
0!
0-
#807000
1!
1-
1<
02
01
00
0.
#808000
0!
0-
#809000
1!
1-
09
0:
0;
0<
16
1.
17
18
1+
1$
#810000
0!
0-
#811000
1!
1-
1<
06
10
0.
07
08
0+
0$
#812000
0!
0-
#813000
1!
1-
1;
0<
1.
#814000
0!
0-
#815000
1!
1-
1<
11
00
0.
#816000
0!
0-
#817000
1!
1-
1:
0;
0<
16
1.
#818000
0!
0-
#819000
1!
1-
1<
06
10
0.
#820000
0!
0-
#821000
1!
1-
1;
0<
1.
#822000
0!
0-
#823000
1!
1-
1<
12
01
00
0.
#824000
0!
0-
#825000
1!
1-
19
0:
0;
0<
16
1.
17
#826000
0!
0-
#827000
1!
1-
1<
06
10
0.
07
#828000
0!
0-
#829000
1!
1-
1;
0<
1.
#830000
0!
0-
#831000
1!
1-
1<
11
00
0.
#832000
0!
0-
#833000
1!
1-
1:
0;
0<
16
1.
#834000
0!
0-
#835000
1!
1-
1<
06
10
0.
#836000
0!
0-
#837000
1!
1-
1;
0<
1.
#838000
0!
0-
#839000
1!
1-
1<
02
01
00
0.
#840000
0!
0-
#841000
1!
1-
09
0:
0;
0<
16
1.
17
18
1+
1$
#842000
0!
0-
#843000
1!
1-
1<
06
10
0.
07
08
0+
0$
#844000
0!
0-
#845000
1!
1-
1;
0<
1.
#846000
0!
0-
#847000
1!
1-
1<
11
00
0.
#848000
0!
0-
#849000
1!
1-
1:
0;
0<
16
1.
#850000
0!
0-
#851000
1!
1-
1<
06
10
0.
#852000
0!
0-
#853000
1!
1-
1;
0<
1.
#854000
0!
0-
#855000
1!
1-
1<
12
01
00
0.
#856000
0!
0-
#857000
1!
1-
19
0:
0;
0<
16
1.
17
#858000
0!
0-
#859000
1!
1-
1<
06
10
0.
07
#860000
0!
0-
#861000
1!
1-
1;
0<
1.
#862000
0!
0-
#863000
1!
1-
1<
11
00
0.
#864000
0!
0-
#865000
1!
1-
1:
0;
0<
16
1.
#866000
0!
0-
#867000
1!
1-
1<
06
10
0.
#868000
0!
0-
