PR1/simulation/qsim/PR1.msim.vcd
$comment
	File created using the following command:
		vcd file PR1.msim.vcd -direction
$end
$date
	Fri Sep 30 13:29:09 2022
$end
$version
	ModelSim Version 10.5b
$end
$timescale
	1ps
$end

$scope module PR1_vlg_vec_tst $end
$var reg 1 ! A $end
$var reg 1 " B $end
$var reg 1 # P0 $end
$var wire 1 $ P $end
$var wire 1 % S $end

$scope module i1 $end
$var wire 1 & gnd $end
$var wire 1 ' vcc $end
$var wire 1 ( unknown $end
$var tri1 1 ) devclrn $end
$var tri1 1 * devpor $end
$var tri1 1 + devoe $end
$var wire 1 , P~output_o $end
$var wire 1 - S~output_o $end
$var wire 1 . P0~input_o $end
$var wire 1 / A~input_o $end
$var wire 1 0 B~input_o $end
$var wire 1 1 inst8~0_combout $end
$var wire 1 2 inst9~0_combout $end
$upscope $end
$upscope $end
$enddefinitions $end
#0
$dumpvars
0!
0"
0#
0$
0%
0&
1'
x(
1)
1*
1+
0,
0-
0.
0/
00
01
02
$end
#90000
1!
1/
12
1-
1%
#100000
0!
0/
02
0-
0%
#110000
1"
1!
10
1/
11
1,
1$
#120000
0!
0/
12
01
0,
1-
1%
0$
#130000
1#
0"
1!
1.
00
1/
02
11
1,
0-
0%
1$
#140000
0!
0/
12
01
0,
1-
1%
0$
#150000
1"
1!
10
1/
11
1,
1$
#160000
0!
0/
02
0-
0%
#170000
0#
0"
1!
0.
00
1/
12
01
0,
1-
1%
0$
#180000
0!
0/
02
0-
0%
#190000
1"
1!
10
1/
11
1,
1$
#200000
0!
0/
12
01
0,
1-
1%
0$
#210000
1#
0"
1!
1.
00
1/
02
11
1,
0-
0%
1$
#220000
0!
0/
12
01
0,
1-
1%
0$
#230000
1"
1!
10
1/
11
1,
1$
#240000
0!
0/
02
0-
0%
#250000
0#
0"
1!
0.
00
1/
12
01
0,
1-
1%
0$
#260000
0!
0/
02
0-
0%
#270000
1"
1!
10
1/
11
1,
1$
#280000
0!
0/
12
01
0,
1-
1%
0$
#290000
1#
0"
1!
1.
00
1/
02
11
1,
0-
0%
1$
#300000
0!
0/
12
01
0,
1-
1%
0$
#310000
1"
1!
10
1/
11
1,
1$
#320000
0!
0/
02
0-
0%
#330000
0#
0"
1!
0.
00
1/
12
01
0,
1-
1%
0$
#340000
0!
0/
02
0-
0%
#350000
1"
1!
10
1/
11
1,
1$
#360000
0!
0/
12
01
0,
1-
1%
0$
#370000
1#
0"
1!
1.
00
1/
02
11
1,
0-
0%
1$
#380000
0!
0/
12
01
0,
1-
1%
0$
#390000
1"
1!
10
1/
11
1,
1$
#400000
0#
0"
0!
0.
00
0/
02
01
0,
0-
0%
0$
