PR8/simulation/qsim/PR8.msim.vcd
$comment
	File created using the following command:
		vcd file PR8.msim.vcd -direction
$end
$date
	Sat Oct 29 02:34:59 2022
$end
$version
	ModelSim Version 10.5b
$end
$timescale
	1ps
$end

$scope module PR8_vlg_vec_tst $end
$var reg 4 ! addr_a [3:0] $end
$var reg 4 " addr_b [3:0] $end
$var reg 1 # clk $end
$var reg 1 $ clr $end
$var reg 4 % instr [3:0] $end
$var reg 1 & wr_re $end
$var wire 1 ' a [3] $end
$var wire 1 ( a [2] $end
$var wire 1 ) a [1] $end
$var wire 1 * a [0] $end
$var wire 1 + b [3] $end
$var wire 1 , b [2] $end
$var wire 1 - b [1] $end
$var wire 1 . b [0] $end
$var wire 1 / c [3] $end
$var wire 1 0 c [2] $end
$var wire 1 1 c [1] $end
$var wire 1 2 c [0] $end
$var wire 1 3 f $end

$scope module i1 $end
$var wire 1 4 gnd $end
$var wire 1 5 vcc $end
$var wire 1 6 unknown $end
$var tri1 1 7 devclrn $end
$var tri1 1 8 devpor $end
$var tri1 1 9 devoe $end
$var wire 1 : a[0]~output_o $end
$var wire 1 ; a[1]~output_o $end
$var wire 1 < a[2]~output_o $end
$var wire 1 = a[3]~output_o $end
$var wire 1 > b[0]~output_o $end
$var wire 1 ? b[1]~output_o $end
$var wire 1 @ b[2]~output_o $end
$var wire 1 A b[3]~output_o $end
$var wire 1 B c[0]~output_o $end
$var wire 1 C c[1]~output_o $end
$var wire 1 D c[2]~output_o $end
$var wire 1 E c[3]~output_o $end
$var wire 1 F f~output_o $end
$var wire 1 G clk~input_o $end
$var wire 1 H instr[0]~input_o $end
$var wire 1 I instr[1]~input_o $end
$var wire 1 J instr[2]~input_o $end
$var wire 1 K alu|Mux4~0_combout $end
$var wire 1 L addr_b[1]~input_o $end
$var wire 1 M clr~input_o $end
$var wire 1 N wr_re~input_o $end
$var wire 1 O addr_a[0]~input_o $end
$var wire 1 P addr_a[1]~input_o $end
$var wire 1 Q addr_a[2]~input_o $end
$var wire 1 R addr_a[3]~input_o $end
$var wire 1 S ram|ram~146_combout $end
$var wire 1 T ram|ram~147_combout $end
$var wire 1 U ram|ram~36_q $end
$var wire 1 V addr_b[0]~input_o $end
$var wire 1 W ram|ram~177_combout $end
$var wire 1 X ram|ram~148_combout $end
$var wire 1 Y ram|ram~149_combout $end
$var wire 1 Z ram|ram~32_q $end
$var wire 1 [ ram|ram~104_combout $end
$var wire 1 \ ram|ram~150_combout $end
$var wire 1 ] ram|ram~151_combout $end
$var wire 1 ^ ram|ram~44_q $end
$var wire 1 _ ram|ram~105_combout $end
$var wire 1 ` addr_b[3]~input_o $end
$var wire 1 a ram|ram~152_combout $end
$var wire 1 b ram|ram~153_combout $end
$var wire 1 c ram|ram~20_q $end
$var wire 1 d ram|ram~178_combout $end
$var wire 1 e ram|ram~154_combout $end
$var wire 1 f ram|ram~155_combout $end
$var wire 1 g ram|ram~24_q $end
$var wire 1 h ram|ram~179_combout $end
$var wire 1 i ram|ram~156_combout $end
$var wire 1 j ram|ram~157_combout $end
$var wire 1 k ram|ram~16_q $end
$var wire 1 l ram|ram~106_combout $end
$var wire 1 m ram|ram~158_combout $end
$var wire 1 n ram|ram~159_combout $end
$var wire 1 o ram|ram~28_q $end
$var wire 1 p ram|ram~107_combout $end
$var wire 1 q addr_b[2]~input_o $end
$var wire 1 r ram|ram~180_combout $end
$var wire 1 s ram|ram~160_combout $end
$var wire 1 t ram|ram~161_combout $end
$var wire 1 u ram|ram~8_q $end
$var wire 1 v ram|ram~162_combout $end
$var wire 1 w ram|ram~163_combout $end
$var wire 1 x ram|ram~4_q $end
$var wire 1 y ram|ram~181_combout $end
$var wire 1 z ram|ram~164_combout $end
$var wire 1 { ram|ram~165_combout $end
$var wire 1 | ram|ram~0_q $end
$var wire 1 } ram|ram~108_combout $end
$var wire 1 ~ ram|ram~166_combout $end
$var wire 1 !! ram|ram~167_combout $end
$var wire 1 "! ram|ram~12_q $end
$var wire 1 #! ram|ram~109_combout $end
$var wire 1 $! ram|ram~110_combout $end
$var wire 1 %! ram|ram~168_combout $end
$var wire 1 &! ram|ram~169_combout $end
$var wire 1 '! ram|ram~52_q $end
$var wire 1 (! ram|ram~182_combout $end
$var wire 1 )! ram|ram~170_combout $end
$var wire 1 *! ram|ram~171_combout $end
$var wire 1 +! ram|ram~56_q $end
$var wire 1 ,! ram|ram~183_combout $end
$var wire 1 -! ram|ram~172_combout $end
$var wire 1 .! ram|ram~173_combout $end
$var wire 1 /! ram|ram~48_q $end
$var wire 1 0! ram|ram~111_combout $end
$var wire 1 1! ram|ram~174_combout $end
$var wire 1 2! ram|ram~175_combout $end
$var wire 1 3! ram|ram~60_q $end
$var wire 1 4! ram|ram~112_combout $end
$var wire 1 5! ram|ram~113_combout $end
$var wire 1 6! alu|Add0~0_combout $end
$var wire 1 7! alu|Add0~2_cout $end
$var wire 1 8! alu|Add0~3_combout $end
$var wire 1 9! ram|ram~185_combout $end
$var wire 1 :! ram|ram~144_combout $end
$var wire 1 ;! ram|ram~145_combout $end
$var wire 1 <! ram|ram~41_q $end
$var wire 1 =! ram|ram~186_combout $end
$var wire 1 >! ram|ram~9_q $end
$var wire 1 ?! ram|ram~114_combout $end
$var wire 1 @! ram|ram~187_combout $end
$var wire 1 A! ram|ram~57_q $end
$var wire 1 B! ram|ram~115_combout $end
$var wire 1 C! ram|ram~188_combout $end
$var wire 1 D! ram|ram~37_q $end
$var wire 1 E! ram|ram~189_combout $end
$var wire 1 F! ram|ram~21_q $end
$var wire 1 G! ram|ram~190_combout $end
$var wire 1 H! ram|ram~5_q $end
$var wire 1 I! ram|ram~116_combout $end
$var wire 1 J! ram|ram~191_combout $end
$var wire 1 K! ram|ram~53_q $end
$var wire 1 L! ram|ram~117_combout $end
$var wire 1 M! ram|ram~17_q $end
$var wire 1 N! ram|ram~33_q $end
$var wire 1 O! ram|ram~1_q $end
$var wire 1 P! ram|ram~118_combout $end
$var wire 1 Q! ram|ram~49_q $end
$var wire 1 R! ram|ram~119_combout $end
$var wire 1 S! ram|ram~120_combout $end
$var wire 1 T! ram|ram~45_q $end
$var wire 1 U! ram|ram~29_q $end
$var wire 1 V! ram|ram~13_q $end
$var wire 1 W! ram|ram~121_combout $end
$var wire 1 X! ram|ram~61_q $end
$var wire 1 Y! ram|ram~122_combout $end
$var wire 1 Z! ram|ram~123_combout $end
$var wire 1 [! alu|Add0~5_combout $end
$var wire 1 \! alu|Add0~4 $end
$var wire 1 ]! alu|Add0~6_combout $end
$var wire 1 ^! ram|ram~193_combout $end
$var wire 1 _! ram|ram~22_q $end
$var wire 1 `! ram|ram~194_combout $end
$var wire 1 a! ram|ram~18_q $end
$var wire 1 b! ram|ram~124_combout $end
$var wire 1 c! ram|ram~30_q $end
$var wire 1 d! ram|ram~125_combout $end
$var wire 1 e! ram|ram~38_q $end
$var wire 1 f! ram|ram~42_q $end
$var wire 1 g! ram|ram~34_q $end
$var wire 1 h! ram|ram~126_combout $end
$var wire 1 i! ram|ram~195_combout $end
$var wire 1 j! ram|ram~46_q $end
$var wire 1 k! ram|ram~127_combout $end
$var wire 1 l! ram|ram~6_q $end
$var wire 1 m! ram|ram~10_q $end
$var wire 1 n! ram|ram~2_q $end
$var wire 1 o! ram|ram~128_combout $end
$var wire 1 p! ram|ram~196_combout $end
$var wire 1 q! ram|ram~14_q $end
$var wire 1 r! ram|ram~129_combout $end
$var wire 1 s! ram|ram~130_combout $end
$var wire 1 t! ram|ram~197_combout $end
$var wire 1 u! ram|ram~58_q $end
$var wire 1 v! ram|ram~198_combout $end
$var wire 1 w! ram|ram~54_q $end
$var wire 1 x! ram|ram~199_combout $end
$var wire 1 y! ram|ram~50_q $end
$var wire 1 z! ram|ram~131_combout $end
$var wire 1 {! ram|ram~62_q $end
$var wire 1 |! ram|ram~132_combout $end
$var wire 1 }! ram|ram~133_combout $end
$var wire 1 ~! alu|Add0~8_combout $end
$var wire 1 !" alu|Add0~7 $end
$var wire 1 "" alu|Add0~9_combout $end
$var wire 1 #" instr[3]~input_o $end
$var wire 1 $" ram|ram~200_combout $end
$var wire 1 %" ram|ram~39_q $end
$var wire 1 &" ram|ram~7_q $end
$var wire 1 '" ram|ram~134_combout $end
$var wire 1 (" ram|ram~201_combout $end
$var wire 1 )" ram|ram~55_q $end
$var wire 1 *" ram|ram~135_combout $end
$var wire 1 +" ram|ram~202_combout $end
$var wire 1 ," ram|ram~43_q $end
$var wire 1 -" ram|ram~27_q $end
$var wire 1 ." ram|ram~11_q $end
$var wire 1 /" ram|ram~136_combout $end
$var wire 1 0" ram|ram~203_combout $end
$var wire 1 1" ram|ram~59_q $end
$var wire 1 2" ram|ram~137_combout $end
$var wire 1 3" ram|ram~204_combout $end
$var wire 1 4" ram|ram~35_q $end
$var wire 1 5" ram|ram~19_q $end
$var wire 1 6" ram|ram~3_q $end
$var wire 1 7" ram|ram~138_combout $end
$var wire 1 8" ram|ram~205_combout $end
$var wire 1 9" ram|ram~51_q $end
$var wire 1 :" ram|ram~139_combout $end
$var wire 1 ;" ram|ram~140_combout $end
$var wire 1 <" ram|ram~206_combout $end
$var wire 1 =" ram|ram~31_q $end
$var wire 1 >" ram|ram~207_combout $end
$var wire 1 ?" ram|ram~47_q $end
$var wire 1 @" ram|ram~15_q $end
$var wire 1 A" ram|ram~141_combout $end
$var wire 1 B" ram|ram~63_q $end
$var wire 1 C" ram|ram~142_combout $end
$var wire 1 D" ram|ram~143_combout $end
$var wire 1 E" alu|Mux1~0_combout $end
$var wire 1 F" alu|Mux1~1_combout $end
$var wire 1 G" alu|Mux1~2_combout $end
$var wire 1 H" alu|Add0~11_combout $end
$var wire 1 I" alu|Add0~10 $end
$var wire 1 J" alu|Add0~12_combout $end
$var wire 1 K" alu|Mux1~3_combout $end
$var wire 1 L" alu|Mux4~6_combout $end
$var wire 1 M" alu|Mux1~4_combout $end
$var wire 1 N" alu|Mux1~5_combout $end
$var wire 1 O" alu|Mux1~6_combout $end
$var wire 1 P" ram|ram~23_q $end
$var wire 1 Q" ram|ram~94_combout $end
$var wire 1 R" ram|ram~95_combout $end
$var wire 1 S" ram|ram~96_combout $end
$var wire 1 T" ram|ram~97_combout $end
$var wire 1 U" ram|ram~98_combout $end
$var wire 1 V" ram|ram~99_combout $end
$var wire 1 W" ram|ram~100_combout $end
$var wire 1 X" ram|ram~101_combout $end
$var wire 1 Y" ram|ram~102_combout $end
$var wire 1 Z" ram|ram~103_combout $end
$var wire 1 [" alu|Mux2~0_combout $end
$var wire 1 \" alu|concat~1_combout $end
$var wire 1 ]" alu|Mux2~3_combout $end
$var wire 1 ^" alu|Mux2~4_combout $end
$var wire 1 _" alu|Mux2~5_combout $end
$var wire 1 `" alu|Mux2~1_combout $end
$var wire 1 a" alu|Mux2~2_combout $end
$var wire 1 b" alu|Mux2~6_combout $end
$var wire 1 c" alu|Mux2~7_combout $end
$var wire 1 d" ram|ram~192_combout $end
$var wire 1 e" ram|ram~26_q $end
$var wire 1 f" ram|ram~84_combout $end
$var wire 1 g" ram|ram~85_combout $end
$var wire 1 h" ram|ram~86_combout $end
$var wire 1 i" ram|ram~87_combout $end
$var wire 1 j" ram|ram~88_combout $end
$var wire 1 k" ram|ram~89_combout $end
$var wire 1 l" ram|ram~90_combout $end
$var wire 1 m" ram|ram~91_combout $end
$var wire 1 n" ram|ram~92_combout $end
$var wire 1 o" ram|ram~93_combout $end
$var wire 1 p" alu|concat~0_combout $end
$var wire 1 q" alu|Mux3~0_combout $end
$var wire 1 r" alu|Mux3~1_combout $end
$var wire 1 s" alu|Mux3~2_combout $end
$var wire 1 t" alu|Mux3~3_combout $end
$var wire 1 u" alu|Mux3~4_combout $end
$var wire 1 v" ram|ram~184_combout $end
$var wire 1 w" ram|ram~25_q $end
$var wire 1 x" ram|ram~74_combout $end
$var wire 1 y" ram|ram~75_combout $end
$var wire 1 z" ram|ram~76_combout $end
$var wire 1 {" ram|ram~77_combout $end
$var wire 1 |" ram|ram~78_combout $end
$var wire 1 }" ram|ram~79_combout $end
$var wire 1 ~" ram|ram~80_combout $end
$var wire 1 !# ram|ram~81_combout $end
$var wire 1 "# ram|ram~82_combout $end
$var wire 1 ## ram|ram~83_combout $end
$var wire 1 $# alu|Mux4~1_combout $end
$var wire 1 %# alu|Mux4~2_combout $end
$var wire 1 &# alu|Mux4~3_combout $end
$var wire 1 '# alu|Mux4~4_combout $end
$var wire 1 (# alu|Mux4~5_combout $end
$var wire 1 )# ram|ram~176_combout $end
$var wire 1 *# ram|ram~40_q $end
$var wire 1 +# ram|ram~64_combout $end
$var wire 1 ,# ram|ram~65_combout $end
$var wire 1 -# ram|ram~66_combout $end
$var wire 1 .# ram|ram~67_combout $end
$var wire 1 /# ram|ram~68_combout $end
$var wire 1 0# ram|ram~69_combout $end
$var wire 1 1# ram|ram~70_combout $end
$var wire 1 2# ram|ram~71_combout $end
$var wire 1 3# ram|ram~72_combout $end
$var wire 1 4# ram|ram~73_combout $end
$var wire 1 5# alu|Mux0~0_combout $end
$var wire 1 6# alu|Mux0~1_combout $end
$var wire 1 7# alu|Add0~13 $end
$var wire 1 8# alu|Add0~14_combout $end
$var wire 1 9# alu|Mux0~2_combout $end
$var wire 1 :# ram|q_a [3] $end
$var wire 1 ;# ram|q_a [2] $end
$var wire 1 <# ram|q_a [1] $end
$var wire 1 =# ram|q_a [0] $end
$var wire 1 ># ram|q_b [3] $end
$var wire 1 ?# ram|q_b [2] $end
$var wire 1 @# ram|q_b [1] $end
$var wire 1 A# ram|q_b [0] $end
$upscope $end
$upscope $end
$enddefinitions $end
#0
$dumpvars
b0 !
b0 "
0#
0$
b0 %
0&
0*
0)
0(
0'
0.
0-
0,
0+
02
01
00
0/
03
04
15
x6
17
18
19
0:
0;
0<
0=
0>
0?
0@
0A
0B
0C
0D
0E
0F
0G
0H
0I
0J
0K
0L
0M
0N
0O
0P
0Q
0R
0S
0T
0U
0V
1W
0X
0Y
0Z
1[
0\
0]
0^
1_
0`
0a
0b
0c
1d
0e
0f
0g
1h
0i
0j
0k
1l
0m
0n
0o
1p
0q
1r
0s
0t
0u
0v
0w
0x
1y
1z
0{
0|
1}
0~
0!!
0"!
1#!
1$!
0%!
0&!
0'!
1(!
0)!
0*!
0+!
1,!
0-!
0.!
0/!
10!
01!
02!
03!
14!
15!
06!
17!
18!
19!
0:!
0;!
0<!
1=!
0>!
1?!
1@!
0A!
1B!
1C!
0D!
1E!
0F!
1G!
0H!
1I!
1J!
0K!
1L!
0M!
0N!
0O!
0P!
0Q!
0R!
0S!
0T!
0U!
0V!
0W!
0X!
0Y!
0Z!
0[!
1\!
0]!
1^!
0_!
1`!
0a!
1b!
0c!
1d!
0e!
0f!
0g!
0h!
1i!
0j!
0k!
0l!
0m!
0n!
0o!
1p!
0q!
0r!
0s!
1t!
0u!
1v!
0w!
1x!
0y!
1z!
0{!
1|!
0}!
0~!
0!"
0""
0#"
1$"
0%"
0&"
0'"
1("
0)"
0*"
1+"
0,"
0-"
0."
0/"
10"
01"
02"
13"
04"
05"
06"
07"
18"
09"
0:"
0;"
1<"
0="
1>"
0?"
0@"
0A"
0B"
0C"
0D"
1E"
0F"
0G"
0H"
1I"
0J"
0K"
0L"
0M"
0N"
0O"
0P"
0Q"
0R"
0S"
0T"
0U"
0V"
0W"
0X"
0Y"
0Z"
1["
0\"
0]"
0^"
0_"
1`"
0a"
0b"
0c"
1d"
0e"
1f"
1g"
0h"
0i"
0j"
0k"
0l"
1m"
1n"
0o"
0p"
0q"
1r"
0s"
0t"
0u"
1v"
0w"
1x"
1y"
1z"
1{"
0|"
0}"
0~"
0!#
0"#
0##
0$#
0%#
0&#
1'#
0(#
1)#
0*#
1+#
1,#
1-#
1.#
1/#
10#
11#
12#
13#
14#
05#
06#
07#
18#
09#
0=#
0<#
0;#
0:#
0A#
0@#
0?#
0>#
$end
#10000
1$
1M
#20000
1#
1G
1=#
1A#
1>
1:
0'#
1q"
0\!
08!
16!
1*
1.
1]!
18!
#40000
0#
0G
#60000
1#
1G
#80000
b10 !
b1 %
0#
1H
1P
0G
08#
1s"
1_"
1F"
07!
00#
0/#
0,#
0+#
0n"
0m"
0g"
0f"
0z
1s
1##
1t"
1b"
08!
01#
10#
1,#
1n"
1g"
1O"
1E
11#
1/
1u"
1c"
04#
0>"
0<"
08"
03"
00"
0+"
0("
0$"
1D
1C
11
10
14#
0v"
0J!
0G!
0E!
0C!
0@!
0=!
09!
0d"
0x!
0v!
0t!
0p!
0i!
0`!
0^!
#100000
1#
1G
1<#
1;
0r"
1p"
1]"
1!"
0]!
1)
0s"
1""
0t"
0u"
0C
01
1v"
1J!
1G!
1E!
1C!
1@!
1=!
19!
#120000
0#
0G
#140000
1#
1G
#160000
b110 !
b11 %
b100 !
b10 %
0#
0H
1I
0P
1Q
0G
18#
0_"
0F"
17!
1%#
1r"
1^"
1L"
00#
1/#
0,#
1+#
0n"
1m"
0g"
1f"
0s
1i
0x"
1Y"
0##
1o"
0b"
18!
1s"
1_"
10#
1,#
1n"
1g"
0O"
0o"
0E
1t"
1b"
0/
0c"
1o"
1>"
1<"
18"
13"
10"
1+"
1("
1$"
0D
00
1u"
1c"
1d"
1x!
1v!
1t!
1p!
1i!
1`!
1^!
1D
1C
11
10
0v"
0J!
0G!
0E!
0C!
0@!
0=!
09!
0d"
0x!
0v!
0t!
0p!
0i!
0`!
0^!
#180000
1#
1G
0<#
1;#
1<
0;
0p"
0]"
0!"
1]!
1\"
1M"
0I"
0""
0)
1(
0^"
1I"
1""
1N"
1J"
0_"
0J"
1O"
1E
0b"
1/
0>"
0<"
08"
03"
00"
0+"
0("
0$"
0c"
0D
00
1d"
1x!
1v!
1t!
1p!
1i!
1`!
1^!
#200000
0#
0G
#220000
1#
1G
#240000
b110 !
b11 %
0#
1H
1P
0G
08#
15#
0`"
0["
0N"
07!
1K
00#
0/#
0,#
0+#
0n"
0m"
0g"
0f"
0i
1e
1##
16#
1b"
08!
10#
1,#
1n"
1g"
1c"
0O"
0o"
0E
1D
10
0/
19#
0c"
1o"
0d"
0x!
0v!
0t!
0p!
0i!
0`!
0^!
1>"
1<"
18"
13"
10"
1+"
1("
1$"
0D
1F
13
00
1d"
1x!
1v!
1t!
1p!
1i!
1`!
1^!
#260000
1#
1G
1<#
1;
1$#
1p"
1]"
1!"
0]!
1)
1&#
1^"
0I"
0""
1_"
1J"
1(#
1B
12
0)#
0,!
0(!
0y
0r
0h
0d
0W
#280000
0#
0G
#300000
1#
1G
#320000
b1110 !
b111 %
b1010 !
b101 %
b1000 !
b100 %
0#
0H
0I
1J
0P
0Q
1R
0G
18#
05#
0s"
0_"
1N"
1G"
17!
0%#
0r"
0L"
1H"
0E"
1~!
1[!
06!
00#
1/#
0,#
1+#
0n"
1m"
0g"
1f"
0e
1X
01#
0z"
0y"
1x"
0Y"
1X"
1Q"
1V"
1T"
0##
0o"
1K"
17#
0J"
1""
1]!
10#
1,#
1n"
1g"
1y"
1Y"
1R"
1W"
04#
08#
1O"
14#
1Z"
1E
1/
0>"
0<"
08"
03"
00"
0+"
0("
0$"
#340000
1#
1G
0<#
0;#
1:#
1=
0<
0;
0$#
1r"
0p"
0]"
0]!
0^"
0\"
0M"
0""
1J"
0)
0(
1'
0u"
1c"
1D
0C
0&#
0N"
01
10
1v"
1J!
1G!
1E!
1C!
1@!
1=!
19!
0d"
0x!
0v!
0t!
0p!
0i!
0`!
0^!
0(#
0B
02
1)#
1,!
1(!
1y
1r
1h
1d
1W
#360000
0#
0G
#380000
1#
1G
#400000
b1000 "
b1010 "
b1011 "
b1100 %
b1000 %
b1010 !
b1001 %
0#
1P
1H
0J
1#"
1V
1L
1`
0G
00#
0/#
0,#
0+#
0n"
0m"
0g"
0f"
1:!
0X
18#
1s"
1`"
1_"
1["
1N"
0G"
07!
0K
1'#
0H"
0~!
0[!
16!
06#
0r"
0q"
1^"
1M"
1;"
1o!
1h!
1S!
04!
0p
0|!
0d!
0#!
0_
1A"
1:"
12"
1'"
0I!
0$!
1##
1Z!
10#
1,#
1n"
1g"
0K"
0J"
1I"
1""
0!"
1]!
0s"
0_"
1r!
1k!
1C"
1*"
04#
09#
1u"
1(#
0Z!
05!
1B
1C
0F
0N"
07#
1J"
0""
0t"
0b"
1s!
03
11
12
14#
0O"
1D"
0v"
0J!
0G!
0E!
0C!
0@!
0=!
09!
0)#
0,!
0(!
0y
0r
0h
0d
0W
0E
08#
1N"
0/
0c"
0u"
1}!
1>"
1<"
18"
13"
10"
1+"
1("
1$"
0C
0D
00
01
1d"
1x!
1v!
1t!
1p!
1i!
1`!
1^!
1v"
1J!
1G!
1E!
1C!
1@!
1=!
19!
#420000
1#
1G
1<#
1>#
1?#
0A#
0>
1@
1A
1;
1p"
1]"
1!"
0]!
1H"
1E"
1\"
1~!
0'#
06!
1)
1+
1,
0.
0I"
17#
0J"
1F"
1\!
18!
0(#
0B
1J"
18#
0N"
0!"
1]!
02
1O"
1)#
1,!
1(!
1y
1r
1h
1d
1W
1E
1N"
1I"
1""
1/
0>"
0<"
08"
03"
00"
0+"
0("
0$"
0J"
0N"
#440000
0#
0G
#460000
1#
1G
#480000
b1111 "
b1110 !
b1011 %
b1101 "
b1100 !
b1010 %
0#
0H
1I
0P
1Q
0L
1q
0G
08#
1_"
1N"
0F"
17!
1%#
1r"
1L"
00#
1/#
0,#
1+#
0n"
1m"
0g"
1f"
0:!
1-!
11#
1!#
1|"
1z"
1l"
0Y"
1U"
1S"
0;"
1|!
0o!
0h!
1d!
00!
1#!
0}
0l
1_
0[
0C"
17"
1/"
1W!
1P!
1I!
1$!
0##
1o"
1Z!
0}!
1b"
0\!
08!
1&#
1s"
15#
10#
1,#
1n"
1g"
0r!
0k!
0#!
0_
0o"
1}!
1!"
0]!
1t"
1c"
1(#
1o"
1B
1D
0I"
0""
10
12
1u"
0d"
0x!
0v!
0t!
0p!
0i!
0`!
0^!
0)#
0,!
0(!
0y
0r
0h
0d
0W
1C
1J"
11
0v"
0J!
0G!
0E!
0C!
0@!
0=!
09!
#500000
1#
1G
0<#
1;#
1@#
1?
1<
0;
0r"
0!"
1]!
0\"
1""
1q"
1[!
0)
1(
1-
0s"
0""
1r"
1!"
0]!
0t"
1s"
1""
1t"
0u"
0C
01
1u"
1v"
1J!
1G!
1E!
1C!
1@!
1=!
19!
1C
11
0v"
0J!
0G!
0E!
0C!
0@!
0=!
09!
#520000
0#
0G
#540000
1#
1G
#560000
b1111 "
b1110 !
b1011 %
0#
1H
1P
1L
0G
18#
0&#
1a"
0`"
0["
07!
1K
00#
0/#
0,#
0+#
0n"
0m"
0g"
0f"
0-!
1)!
1;"
0|!
1o!
1h!
0d!
10!
1#!
1}
1l
1_
1[
1##
0Z!
0t"
0b"
1\!
18!
10#
1,#
1n"
1g"
1r!
1k!
0#!
0_
19#
0(#
0o"
0D"
0}!
0B
1F
0!"
1]!
1$#
13
02
0u"
1o"
1)#
1,!
1(!
1y
1r
1h
1d
1W
0C
0""
1&#
01
1u"
1v"
1J!
1G!
1E!
1C!
1@!
1=!
19!
1C
11
0c"
1(#
0v"
0J!
0G!
0E!
0C!
0@!
0=!
09!
1B
0D
00
12
1d"
1x!
1v!
1t!
1p!
1i!
1`!
1^!
0)#
0,!
0(!
0y
0r
0h
0d
0W
#580000
1#
1G
1<#
0>#
0?#
0@#
0?
0@
0A
1;
0]"
1!"
0]!
0H"
0E"
1\"
0~!
0q"
0[!
1)
0+
0,
0-
0J"
0!"
1]!
0u"
0C
0N"
1I"
1""
01
1u"
1v"
1J!
1G!
1E!
1C!
1@!
1=!
19!
1C
07#
1J"
11
0O"
1c"
0v"
0J!
0G!
0E!
0C!
0@!
0=!
09!
1D
0E
08#
1N"
0/
10
1>"
1<"
18"
13"
10"
1+"
1("
1$"
0d"
0x!
0v!
0t!
0p!
0i!
0`!
0^!
09#
1O"
1E
0F
03
1/
0>"
0<"
08"
03"
00"
0+"
0("
0$"
#600000
0#
0G
#620000
1#
1G
#640000
b110 !
b111 "
b1111 %
b11 "
b10 !
b1101 %
b1 "
b0 !
b1100 %
0#
0H
0I
1J
0L
0q
0`
0P
0Q
0R
0G
18#
0s"
0_"
1G"
17!
0%#
0r"
0L"
1'#
1H"
1E"
1~!
1[!
16!
0;"
1|!
0o!
0h!
1d!
00!
1#!
0}
0l
1_
0[
1C"
0A"
07"
0/"
0'"
0W!
1R!
0P!
0$!
1Y!
00#
1/#
0,#
1+#
0n"
1m"
0g"
1f"
0)!
1z
0!#
1}"
0|"
0l"
1Y"
0X"
0U"
0S"
0Q"
1"#
1Z!
1}!
15!
0##
1K"
0\!
05#
17#
0J"
0I"
0""
1!"
0]!
0r!
0k!
1$!
0#!
0_
0C"
0:"
02"
0*"
0Y!
0R!
01#
10#
1,#
1n"
1g"
0"#
1~"
0}"
0Y"
0V"
0T"
0R"
19#
0O"
1D"
05!
0o"
0E
1F
1]!
08#
0K"
1J"
1""
0s!
0$!
11#
0~"
0W"
13
0/
1O"
0c"
0u"
15!
0D"
04#
1##
1>"
1<"
18"
13"
10"
1+"
1("
1$"
0C
0D
1E
1K"
1/
00
01
1u"
09#
0O"
1c"
0}!
05!
14#
0##
0Z"
0>"
0<"
08"
03"
00"
0+"
0("
0$"
1d"
1x!
1v!
1t!
1p!
1i!
1`!
1^!
1v"
1J!
1G!
1E!
1C!
1@!
1=!
19!
1D
0E
0F
1C
11
03
0/
10
1O"
0v"
0J!
0G!
0E!
0C!
0@!
0=!
09!
1>"
1<"
18"
13"
10"
1+"
1("
1$"
0d"
0x!
0v!
0t!
0p!
0i!
0`!
0^!
1E
1/
0>"
0<"
08"
03"
00"
0+"
0("
0$"
#660000
1#
1G
0<#
0;#
0:#
1@#
1?
0=
0<
0;
0]!
0\"
0M"
0""
0J"
0E"
1q"
0[!
0)
0(
0'
1-
0N"
0K"
0!"
1]!
0u"
0c"
0D
0C
1I"
1""
01
00
0O"
1u"
1v"
1J!
1G!
1E!
1C!
1@!
1=!
19!
1d"
1x!
1v!
1t!
1p!
1i!
1`!
1^!
1C
0E
07#
1J"
0/
11
1c"
1>"
1<"
18"
13"
10"
1+"
1("
1$"
0v"
0J!
0G!
0E!
0C!
0@!
0=!
09!
1D
18#
1K"
10
0d"
0x!
0v!
0t!
0p!
0i!
0`!
0^!
19#
1O"
1E
1F
13
1/
0>"
0<"
08"
03"
00"
0+"
0("
0$"
#680000
0#
0G
#700000
1#
1G
#720000
b11 "
b10 !
b1101 %
0#
1H
1P
1L
0G
08#
1`"
1["
1N"
0G"
07!
0K
00#
0/#
0,#
0+#
0n"
0m"
0g"
0f"
0z
1s
1;"
0|!
1o!
1h!
0d!
10!
1#!
1}
1l
1_
1[
1##
0Z!
1t"
0K"
08!
0$#
01#
10#
1,#
1n"
1g"
1r!
1k!
1$!
0#!
0_
09#
0u"
0c"
0D
0C
0F
0&#
11#
1s!
0$!
03
01
00
1u"
0O"
04#
15!
1v"
1J!
1G!
1E!
1C!
1@!
1=!
19!
1d"
1x!
1v!
1t!
1p!
1i!
1`!
1^!
0E
1C
11
0/
14#
1}!
05!
0v"
0J!
0G!
0E!
0C!
0@!
0=!
09!
1>"
1<"
18"
13"
10"
1+"
1("
1$"
#740000
1#
1G
1<#
1?#
0@#
0?
1@
1;
1r"
1]"
1!"
0]!
1\"
0~!
0q"
1[!
1)
1,
0-
1s"
1b"
0r"
1]!
0s"
1c"
1D
10
0d"
0x!
0v!
0t!
0p!
0i!
0`!
0^!
#760000
0#
0G
#780000
1#
1G
#800000
b101 %
b1 %
b1 "
b0 !
b0 %
0#
0P
0L
0H
0J
0#"
0G
00#
1/#
0,#
1+#
0n"
1m"
0g"
1f"
1z
0s
0;"
1|!
0o!
0h!
1d!
00!
1#!
0}
0l
1_
0[
18#
0a"
0N"
17!
0'#
0H"
1E"
1~!
0[!
06!
1q"
0^"
0##
1Z!
0(#
0B
01#
10#
1,#
1n"
1g"
0r!
0k!
1$!
0#!
0_
0t"
0b"
0J"
0I"
0""
0]!
02
1)#
1,!
1(!
1y
1r
1h
1d
1W
11#
0s!
0$!
1J"
04#
15!
0u"
0c"
0D
0C
01
00
14#
0}!
05!
1v"
1J!
1G!
1E!
1C!
1@!
1=!
19!
1d"
1x!
1v!
1t!
1p!
1i!
1`!
1^!
#820000
1#
1G
0<#
0?#
1@#
1?
0@
0;
1r"
0]"
0!"
1]!
0\"
0~!
1[!
0)
0,
1-
1I"
1!"
0]!
0J"
1""
#830000
0$
0M
0@#
0=#
0:
0?
0q"
0p"
0[!
1'#
1\!
18!
0-
0*
0!"
0""
#840000
0#
0G
#850000
1$
1M
#860000
1#
1G
1=#
1@#
1?
1:
0'#
1q"
0\!
08!
1p"
1[!
1*
1-
1!"
1""
#880000
0#
0G
#890000
1&
1N
1{
#900000
1#
1G
1|
0/#
00#
01#
04#
#910000
0&
0N
0{
#920000
0#
0G
#940000
1#
1G
0=#
0:
1'#
0q"
1\!
18!
0*
0!"
1]!
0""
#960000
0#
0G
#980000
1#
1G
