PR42/simulation/qsim/PR42.msim.vcd
$comment
	File created using the following command:
		vcd file PR42.msim.vcd -direction
$end
$date
	Sat Oct 08 03:20:19 2022
$end
$version
	ModelSim Version 10.5b
$end
$timescale
	1ps
$end

$scope module PR42_vlg_vec_tst $end
$var reg 8 ! in [7:0] $end
$var wire 1 " out [5] $end
$var wire 1 # out [4] $end
$var wire 1 $ out [3] $end
$var wire 1 % out [2] $end
$var wire 1 & out [1] $end
$var wire 1 ' out [0] $end

$scope module i1 $end
$var wire 1 ( gnd $end
$var wire 1 ) vcc $end
$var wire 1 * unknown $end
$var tri1 1 + devclrn $end
$var tri1 1 , devpor $end
$var tri1 1 - devoe $end
$var wire 1 . out[0]~output_o $end
$var wire 1 / out[1]~output_o $end
$var wire 1 0 out[2]~output_o $end
$var wire 1 1 out[3]~output_o $end
$var wire 1 2 out[4]~output_o $end
$var wire 1 3 out[5]~output_o $end
$var wire 1 4 in[0]~input_o $end
$var wire 1 5 in[3]~input_o $end
$var wire 1 6 in[1]~input_o $end
$var wire 1 7 in[2]~input_o $end
$var wire 1 8 in[4]~input_o $end
$var wire 1 9 out~0_combout $end
$var wire 1 : in[6]~input_o $end
$var wire 1 ; in[7]~input_o $end
$var wire 1 < in[5]~input_o $end
$var wire 1 = out~1_combout $end
$var wire 1 > out~2_combout $end
$var wire 1 ? out~3_combout $end
$var wire 1 @ out~4_combout $end
$var wire 1 A out~5_combout $end
$upscope $end
$upscope $end
$enddefinitions $end
#0
$dumpvars
b101000 !
0'
0&
0%
0$
0#
0"
0(
1)
x*
1+
1,
1-
0.
0/
00
01
02
03
04
15
06
07
08
19
0:
0;
1<
1=
0>
0?
0@
0A
$end
#20000
b101001 !
14
#40000
b101011 !
b101010 !
04
16
#60000
b101011 !
14
#80000
b101111 !
b101101 !
b101100 !
04
06
17
#100000
b101101 !
14
#120000
b101111 !
b101110 !
04
16
#140000
b101111 !
14
#160000
b111111 !
b110111 !
b110011 !
b110001 !
b110000 !
04
06
07
05
18
09
0=
#180000
b110001 !
14
1>
1.
1'
#200000
b110011 !
b110010 !
04
16
0>
1?
1/
0.
0'
1&
#220000
b110011 !
14
1>
1.
1'
#240000
b110111 !
b110101 !
b110100 !
04
06
17
0>
0?
1@
10
0/
0.
0'
0&
1%
#260000
b110101 !
14
1>
1.
1'
#280000
b110111 !
b110110 !
04
16
0>
1?
1/
0.
0'
1&
#300000
b110111 !
14
1>
1.
1'
#320000
b111111 !
b111011 !
b111001 !
b111000 !
04
06
07
15
0>
0?
0@
1A
11
00
0/
0.
0'
0&
0%
1$
#340000
b111001 !
14
1>
1.
1'
#360000
b111011 !
b111010 !
04
16
19
0>
1?
1/
0.
1=
0'
1&
0A
0?
0/
01
0$
0&
#380000
b111011 !
14
#400000
b111111 !
b111101 !
b111100 !
04
06
17
#420000
b111101 !
14
#440000
b111111 !
b111110 !
04
16
#460000
b111111 !
14
#480000
b1111111 !
b1011111 !
b1001111 !
b1000111 !
b1000011 !
b1000001 !
b1000000 !
04
06
07
05
08
0<
1:
#500000
b1000001 !
14
#520000
b1000011 !
b1000010 !
04
16
#540000
b1000011 !
14
#560000
b1000111 !
b1000101 !
b1000100 !
04
06
17
#580000
b1000101 !
14
#600000
b1000111 !
b1000110 !
04
16
#620000
b1000111 !
14
#640000
b1001111 !
b1001011 !
b1001001 !
b1001000 !
04
06
07
15
#660000
b1001001 !
14
#680000
b1001011 !
b1001010 !
04
16
#700000
b1001011 !
14
#720000
b1001111 !
b1001101 !
b1001100 !
04
06
17
#740000
b1001101 !
14
#760000
b1001111 !
b1001110 !
04
16
#780000
b1001111 !
14
#800000
b1011111 !
b1010111 !
b1010011 !
b1010001 !
b1010000 !
04
06
07
05
18
09
#820000
b1010001 !
14
#840000
b1010011 !
b1010010 !
04
16
#860000
b1010011 !
14
#880000
b1010111 !
b1010101 !
b1010100 !
04
06
17
#900000
b1010101 !
14
#920000
b1010111 !
b1010110 !
04
16
#940000
b1010111 !
14
#960000
b1011111 !
b1011011 !
b1011001 !
b1011000 !
04
06
07
15
#980000
b1011001 !
14
